{"failedCount":0,"prefixedPath":"src\/test\/java\/features\/GetApiWithQuery.feature","packageQualifiedName":"src.test.java.features.GetApiWithQuery","loopIndex":-1,"relativePath":"src\/test\/java\/features\/GetApiWithQuery.feature","scenarioResults":[{"sectionIndex":0,"stepResults":[{"result":{"nanos":46946600,"millis":46.9466,"status":"passed"},"step":{"line":4,"prefix":"*","index":0,"text":"def query = {status: 'active', gender: 'female', id: 23}"},"stepLog":"17:57:32.286 karate.env system property was: null \n"},{"result":{"nanos":7043600,"millis":7.0436,"status":"passed"},"step":{"line":5,"prefix":"Given","index":1,"text":"url baseUrl + '\/public\/v1\/users'"}},{"result":{"nanos":9681200,"millis":9.6812,"status":"passed"},"step":{"line":6,"prefix":"And","index":2,"text":"params query"}},{"result":{"nanos":1246926900,"millis":1246.9269,"status":"passed"},"step":{"line":7,"prefix":"When","index":3,"text":"method GET"},"stepLog":"17:57:33.059 request:\n1 > GET https:\/\/gorest.co.in\/public\/v1\/users?gender=female&id=23&status=active\n1 > Host: gorest.co.in\n1 > Connection: Keep-Alive\n1 > User-Agent: Apache-HttpClient\/4.5.12 (Java\/1.8.0_351)\n1 > Accept-Encoding: gzip,deflate\n\n\n17:57:33.631 response time in milliseconds: 570\n1 < 200\n1 < Date: Thu, 03 Nov 2022 10:57:34 GMT\n1 < Content-Type: application\/json; charset=utf-8\n1 < Transfer-Encoding: chunked\n1 < Connection: keep-alive\n1 < Cache-Control: max-age=0, private, must-revalidate\n1 < etag: W\/\"7d0fad3944b5884d753950e7824069d3\"\n1 < referrer-policy: strict-origin-when-cross-origin\n1 < vary: Origin\n1 < x-content-type-options: nosniff\n1 < x-download-options: noopen\n1 < x-frame-options: SAMEORIGIN\n1 < x-permitted-cross-domain-policies: none\n1 < x-request-id: 5f8d2b4a-f747-4dca-a24f-b50c8053ef76\n1 < x-runtime: 0.015764\n1 < x-xss-protection: 0\n1 < CF-Cache-Status: DYNAMIC\n1 < Report-To: {\"endpoints\":[{\"url\":\"https:\\\/\\\/a.nel.cloudflare.com\\\/report\\\/v3?s=gQFX0Fs%2FV7mKEbSfH0dCfT6QYCSpK8BIuyxMLniLhdq01aXowdj%2BvbJCGo24v%2FY68EBecXjbtQhiOcgsgqXg%2FTBVqg0C8QrT5vQxB%2BnQyGmAK6HvJt%2FmejbSIt4oon8%3D\"}],\"group\":\"cf-nel\",\"max_age\":604800}\n1 < NEL: {\"success_fraction\":0,\"report_to\":\"cf-nel\",\"max_age\":604800}\n1 < Server: cloudflare\n1 < CF-RAY: 764496fcfc1091b4-SIN\n1 < alt-svc: h3=\":443\"; ma=86400, h3-29=\":443\"; ma=86400\n{\"meta\":{\"pagination\":{\"total\":0,\"pages\":0,\"page\":1,\"limit\":10,\"links\":{\"previous\":null,\"current\":null,\"next\":null}}},\"data\":[]}\n\n"},{"result":{"nanos":10500,"millis":0.0105,"status":"passed"},"step":{"line":8,"prefix":"Then","index":4,"text":"status 200"}},{"result":{"nanos":1893700,"millis":1.8937,"status":"passed"},"step":{"line":9,"prefix":"*","index":5,"text":"print response"},"stepLog":"17:57:33.636 [print] {\n  \"meta\": {\n    \"pagination\": {\n      \"total\": 0,\n      \"pages\": 0,\n      \"page\": 1,\n      \"limit\": 10,\n      \"links\": {\n        \"previous\": null,\n        \"current\": null,\n        \"next\": null\n      }\n    }\n  },\n  \"data\": [\n  ]\n}\n \n"}],"executorName":"main","line":3,"name":"get all active users","description":"","durationMillis":1312.5025,"startTime":1667473052144,"failed":false,"refId":"[1:3]","endTime":1667473053637,"exampleIndex":-1},{"sectionIndex":1,"stepResults":[{"result":{"nanos":208600,"millis":0.2086,"status":"passed"},"step":{"line":12,"prefix":"*","index":0,"text":"def query = {status: 'active'}"},"stepLog":"17:57:33.643 karate.env system property was: null \n"},{"result":{"nanos":405300,"millis":0.4053,"status":"passed"},"step":{"line":13,"prefix":"Given","index":1,"text":"url baseUrl + '\/public\/v1\/users'"}},{"result":{"nanos":111800,"millis":0.1118,"status":"passed"},"step":{"line":14,"prefix":"And","index":2,"text":"params query"}},{"result":{"nanos":334944100,"millis":334.9441,"status":"passed"},"step":{"line":15,"prefix":"When","index":3,"text":"method GET"},"stepLog":"17:57:33.646 request:\n1 > GET https:\/\/gorest.co.in\/public\/v1\/users?status=active\n1 > Host: gorest.co.in\n1 > Connection: Keep-Alive\n1 > User-Agent: Apache-HttpClient\/4.5.12 (Java\/1.8.0_351)\n1 > Accept-Encoding: gzip,deflate\n\n\n17:57:33.980 response time in milliseconds: 333\n1 < 200\n1 < Date: Thu, 03 Nov 2022 10:57:34 GMT\n1 < Content-Type: application\/json; charset=utf-8\n1 < Transfer-Encoding: chunked\n1 < Connection: keep-alive\n1 < Cache-Control: max-age=0, private, must-revalidate\n1 < etag: W\/\"666a2fc48d89f5ab83176c45135b3939\"\n1 < referrer-policy: strict-origin-when-cross-origin\n1 < vary: Origin\n1 < x-content-type-options: nosniff\n1 < x-download-options: noopen\n1 < x-frame-options: SAMEORIGIN\n1 < x-permitted-cross-domain-policies: none\n1 < x-request-id: 94fb2e8f-2866-480c-bd25-1fc6ecfda83d\n1 < x-runtime: 0.021415\n1 < x-xss-protection: 0\n1 < CF-Cache-Status: DYNAMIC\n1 < Report-To: {\"endpoints\":[{\"url\":\"https:\\\/\\\/a.nel.cloudflare.com\\\/report\\\/v3?s=3z3yKQProckRA%2BNiXzpAw%2BcKeOjcQrgK3RLWh06kFRFrGuYNXbmNsE%2F1IarYLPROSvXzlbcc53ll8hXnf3TPWt0jDofcjkuzx9ls4zoV1V3G7En9BMPHU0kFRb3NZtY%3D\"}],\"group\":\"cf-nel\",\"max_age\":604800}\n1 < NEL: {\"success_fraction\":0,\"report_to\":\"cf-nel\",\"max_age\":604800}\n1 < Server: cloudflare\n1 < CF-RAY: 764496ff2f0d91b4-SIN\n1 < alt-svc: h3=\":443\"; ma=86400, h3-29=\":443\"; ma=86400\n{\"meta\":{\"pagination\":{\"total\":1708,\"pages\":171,\"page\":1,\"limit\":10,\"links\":{\"previous\":null,\"current\":\"https:\/\/gorest.co.in\/public\/v1\/users?page=1\",\"next\":\"https:\/\/gorest.co.in\/public\/v1\/users?page=2\"}}},\"data\":[{\"id\":3393,\"name\":\"Sen. Gajaadhar Johar\",\"email\":\"johar_gajaadhar_sen@mcdermott.net\",\"gender\":\"female\",\"status\":\"active\"},{\"id\":3392,\"name\":\"Dhara Varma\",\"email\":\"varma_dhara@kuvalis.biz\",\"gender\":\"male\",\"status\":\"active\"},{\"id\":3391,\"name\":\"Vrund Butt\",\"email\":\"vrund_butt@fay.name\",\"gender\":\"female\",\"status\":\"active\"},{\"id\":3390,\"name\":\"Sukanya Khanna\",\"email\":\"khanna_sukanya@reynolds.net\",\"gender\":\"male\",\"status\":\"active\"},{\"id\":3389,\"name\":\"Mr. Tanya Desai\",\"email\":\"mr_desai_tanya@grant.co\",\"gender\":\"male\",\"status\":\"active\"},{\"id\":3386,\"name\":\"Chinmayanand Bharadwaj IV\",\"email\":\"chinmayanand_bharadwaj_iv@torphy.net\",\"gender\":\"male\",\"status\":\"active\"},{\"id\":3385,\"name\":\"Aaryan Chattopadhyay\",\"email\":\"aaryan_chattopadhyay@heidenreich.co\",\"gender\":\"female\",\"status\":\"active\"},{\"id\":3382,\"name\":\"Aanandaswarup Prajapat\",\"email\":\"prajapat_aanandaswarup@hayes-prohaska.com\",\"gender\":\"male\",\"status\":\"active\"},{\"id\":3381,\"name\":\"Siddhi Kaul\",\"email\":\"siddhi_kaul@lebsack-borer.name\",\"gender\":\"male\",\"status\":\"active\"},{\"id\":3380,\"name\":\"Aagneya Somayaji LLD\",\"email\":\"somayaji_lld_aagneya@corkery-stracke.co\",\"gender\":\"female\",\"status\":\"active\"}]}\n\n"},{"result":{"nanos":11300,"millis":0.0113,"status":"passed"},"step":{"line":16,"prefix":"Then","index":4,"text":"status 200"}},{"result":{"nanos":439200,"millis":0.4392,"status":"passed"},"step":{"line":17,"prefix":"*","index":5,"text":"def jsonResponse = response"}},{"result":{"nanos":2024000,"millis":2.024,"status":"passed"},"step":{"line":18,"prefix":"*","index":6,"text":"print jsonResponse"},"stepLog":"17:57:33.983 [print] {\n  \"meta\": {\n    \"pagination\": {\n      \"total\": 1708,\n      \"pages\": 171,\n      \"page\": 1,\n      \"limit\": 10,\n      \"links\": {\n        \"previous\": null,\n        \"current\": \"https:\/\/gorest.co.in\/public\/v1\/users?page=1\",\n        \"next\": \"https:\/\/gorest.co.in\/public\/v1\/users?page=2\"\n      }\n    }\n  },\n  \"data\": [\n    {\n      \"id\": 3393,\n      \"name\": \"Sen. Gajaadhar Johar\",\n      \"email\": \"johar_gajaadhar_sen@mcdermott.net\",\n      \"gender\": \"female\",\n      \"status\": \"active\"\n    },\n    {\n      \"id\": 3392,\n      \"name\": \"Dhara Varma\",\n      \"email\": \"varma_dhara@kuvalis.biz\",\n      \"gender\": \"male\",\n      \"status\": \"active\"\n    },\n    {\n      \"id\": 3391,\n      \"name\": \"Vrund Butt\",\n      \"email\": \"vrund_butt@fay.name\",\n      \"gender\": \"female\",\n      \"status\": \"active\"\n    },\n    {\n      \"id\": 3390,\n      \"name\": \"Sukanya Khanna\",\n      \"email\": \"khanna_sukanya@reynolds.net\",\n      \"gender\": \"male\",\n      \"status\": \"active\"\n    },\n    {\n      \"id\": 3389,\n      \"name\": \"Mr. Tanya Desai\",\n      \"email\": \"mr_desai_tanya@grant.co\",\n      \"gender\": \"male\",\n      \"status\": \"active\"\n    },\n    {\n      \"id\": 3386,\n      \"name\": \"Chinmayanand Bharadwaj IV\",\n      \"email\": \"chinmayanand_bharadwaj_iv@torphy.net\",\n      \"gender\": \"male\",\n      \"status\": \"active\"\n    },\n    {\n      \"id\": 3385,\n      \"name\": \"Aaryan Chattopadhyay\",\n      \"email\": \"aaryan_chattopadhyay@heidenreich.co\",\n      \"gender\": \"female\",\n      \"status\": \"active\"\n    },\n    {\n      \"id\": 3382,\n      \"name\": \"Aanandaswarup Prajapat\",\n      \"email\": \"prajapat_aanandaswarup@hayes-prohaska.com\",\n      \"gender\": \"male\",\n      \"status\": \"active\"\n    },\n    {\n      \"id\": 3381,\n      \"name\": \"Siddhi Kaul\",\n      \"email\": \"siddhi_kaul@lebsack-borer.name\",\n      \"gender\": \"male\",\n      \"status\": \"active\"\n    },\n    {\n      \"id\": 3380,\n      \"name\": \"Aagneya Somayaji LLD\",\n      \"email\": \"somayaji_lld_aagneya@corkery-stracke.co\",\n      \"gender\": \"female\",\n      \"status\": \"active\"\n    }\n  ]\n}\n \n"},{"result":{"nanos":2011500,"millis":2.0115,"status":"passed"},"step":{"line":19,"prefix":"*","index":7,"text":"def userCount = jsonResponse.data.length"}},{"result":{"nanos":1022200,"millis":1.0222,"status":"passed"},"step":{"line":20,"prefix":"*","index":8,"text":"print userCount"},"stepLog":"17:57:33.986 [print] 10 \n"},{"result":{"nanos":7891600,"millis":7.8916,"status":"passed"},"step":{"line":21,"prefix":"*","index":9,"text":"match userCount == 10"}}],"executorName":"main","line":11,"name":"get all active users and get the count","description":"","durationMillis":349.0696,"startTime":1667473053642,"failed":false,"refId":"[2:11]","endTime":1667473053995,"exampleIndex":-1}],"callDepth":0,"name":"GET API with Query Parameters","description":"","resultDate":"2022-11-03 05:57:33 PM","durationMillis":1661.5721,"passedCount":2}