{"failedCount":0,"prefixedPath":"src\/test\/java\/features\/GetApiWithQuery.feature","packageQualifiedName":"src.test.java.features.GetApiWithQuery","loopIndex":-1,"relativePath":"src\/test\/java\/features\/GetApiWithQuery.feature","scenarioResults":[{"sectionIndex":0,"stepResults":[{"result":{"nanos":43333400,"millis":43.3334,"status":"passed"},"step":{"line":4,"prefix":"*","index":0,"text":"def query = {status: 'active', gender: 'male'}"},"stepLog":"17:40:35.503 karate.env system property was: null \n"},{"result":{"nanos":8183800,"millis":8.1838,"status":"passed"},"step":{"line":5,"prefix":"Given","index":1,"text":"url baseUrl + '\/public\/v1\/users'"}},{"result":{"nanos":8964900,"millis":8.9649,"status":"passed"},"step":{"line":6,"prefix":"And","index":2,"text":"params query"}},{"result":{"nanos":1307621200,"millis":1307.6212,"status":"passed"},"step":{"line":7,"prefix":"When","index":3,"text":"method GET"},"stepLog":"17:40:36.302 request:\n1 > GET https:\/\/gorest.co.in\/public\/v1\/users?gender=male&status=active\n1 > Host: gorest.co.in\n1 > Connection: Keep-Alive\n1 > User-Agent: Apache-HttpClient\/4.5.12 (Java\/1.8.0_351)\n1 > Accept-Encoding: gzip,deflate\n\n\n17:40:36.907 response time in milliseconds: 602\n1 < 200\n1 < Date: Thu, 03 Nov 2022 10:40:37 GMT\n1 < Content-Type: application\/json; charset=utf-8\n1 < Transfer-Encoding: chunked\n1 < Connection: keep-alive\n1 < Cache-Control: max-age=0, private, must-revalidate\n1 < etag: W\/\"2e45d1af7e79ea2916edae5cea3618d9\"\n1 < referrer-policy: strict-origin-when-cross-origin\n1 < vary: Origin\n1 < x-content-type-options: nosniff\n1 < x-download-options: noopen\n1 < x-frame-options: SAMEORIGIN\n1 < x-permitted-cross-domain-policies: none\n1 < x-request-id: 1f5e4745-bd8e-45b5-a394-80b9be85b796\n1 < x-runtime: 0.021277\n1 < x-xss-protection: 0\n1 < CF-Cache-Status: DYNAMIC\n1 < Report-To: {\"endpoints\":[{\"url\":\"https:\\\/\\\/a.nel.cloudflare.com\\\/report\\\/v3?s=vwEEay1djrOS2zJDrYU3IqQ%2BAeqp79ATphmMje%2FJbpyG7bER%2BMy%2FjX4ogtL3W6dPJ3oeieAWP7b%2BuvJWd5%2Fi5tHMzO9jAtI20gFCuw%2BSlLEGyqSRyFBpyRBHebsvACs%3D\"}],\"group\":\"cf-nel\",\"max_age\":604800}\n1 < NEL: {\"success_fraction\":0,\"report_to\":\"cf-nel\",\"max_age\":604800}\n1 < Server: cloudflare\n1 < CF-RAY: 76447e2a5e0191b4-SIN\n1 < alt-svc: h3=\":443\"; ma=86400, h3-29=\":443\"; ma=86400\n{\"meta\":{\"pagination\":{\"total\":844,\"pages\":85,\"page\":1,\"limit\":10,\"links\":{\"previous\":null,\"current\":\"https:\/\/gorest.co.in\/public\/v1\/users?page=1\",\"next\":\"https:\/\/gorest.co.in\/public\/v1\/users?page=2\"}}},\"data\":[{\"id\":3392,\"name\":\"Dhara Varma\",\"email\":\"varma_dhara@kuvalis.biz\",\"gender\":\"male\",\"status\":\"active\"},{\"id\":3390,\"name\":\"Sukanya Khanna\",\"email\":\"khanna_sukanya@reynolds.net\",\"gender\":\"male\",\"status\":\"active\"},{\"id\":3389,\"name\":\"Mr. Tanya Desai\",\"email\":\"mr_desai_tanya@grant.co\",\"gender\":\"male\",\"status\":\"active\"},{\"id\":3386,\"name\":\"Chinmayanand Bharadwaj IV\",\"email\":\"chinmayanand_bharadwaj_iv@torphy.net\",\"gender\":\"male\",\"status\":\"active\"},{\"id\":3382,\"name\":\"Aanandaswarup Prajapat\",\"email\":\"prajapat_aanandaswarup@hayes-prohaska.com\",\"gender\":\"male\",\"status\":\"active\"},{\"id\":3381,\"name\":\"Siddhi Kaul\",\"email\":\"siddhi_kaul@lebsack-borer.name\",\"gender\":\"male\",\"status\":\"active\"},{\"id\":3371,\"name\":\"Gorakhnath Ahuja\",\"email\":\"ahuja_gorakhnath@schuster.org\",\"gender\":\"male\",\"status\":\"active\"},{\"id\":3370,\"name\":\"Atmaja Gandhi\",\"email\":\"atmaja_gandhi@fay.net\",\"gender\":\"male\",\"status\":\"active\"},{\"id\":3368,\"name\":\"Aanjaneya Johar LLD\",\"email\":\"lld_aanjaneya_johar@stanton.com\",\"gender\":\"male\",\"status\":\"active\"},{\"id\":3366,\"name\":\"Bheeshma Abbott MD\",\"email\":\"md_bheeshma_abbott@kuvalis-baumbach.biz\",\"gender\":\"male\",\"status\":\"active\"}]}\n\n"},{"result":{"nanos":21300,"millis":0.0213,"status":"passed"},"step":{"line":8,"prefix":"Then","index":4,"text":"status 200"}},{"result":{"nanos":2465200,"millis":2.4652,"status":"passed"},"step":{"line":9,"prefix":"*","index":5,"text":"print response"},"stepLog":"17:40:36.915 [print] {\n  \"meta\": {\n    \"pagination\": {\n      \"total\": 844,\n      \"pages\": 85,\n      \"page\": 1,\n      \"limit\": 10,\n      \"links\": {\n        \"previous\": null,\n        \"current\": \"https:\/\/gorest.co.in\/public\/v1\/users?page=1\",\n        \"next\": \"https:\/\/gorest.co.in\/public\/v1\/users?page=2\"\n      }\n    }\n  },\n  \"data\": [\n    {\n      \"id\": 3392,\n      \"name\": \"Dhara Varma\",\n      \"email\": \"varma_dhara@kuvalis.biz\",\n      \"gender\": \"male\",\n      \"status\": \"active\"\n    },\n    {\n      \"id\": 3390,\n      \"name\": \"Sukanya Khanna\",\n      \"email\": \"khanna_sukanya@reynolds.net\",\n      \"gender\": \"male\",\n      \"status\": \"active\"\n    },\n    {\n      \"id\": 3389,\n      \"name\": \"Mr. Tanya Desai\",\n      \"email\": \"mr_desai_tanya@grant.co\",\n      \"gender\": \"male\",\n      \"status\": \"active\"\n    },\n    {\n      \"id\": 3386,\n      \"name\": \"Chinmayanand Bharadwaj IV\",\n      \"email\": \"chinmayanand_bharadwaj_iv@torphy.net\",\n      \"gender\": \"male\",\n      \"status\": \"active\"\n    },\n    {\n      \"id\": 3382,\n      \"name\": \"Aanandaswarup Prajapat\",\n      \"email\": \"prajapat_aanandaswarup@hayes-prohaska.com\",\n      \"gender\": \"male\",\n      \"status\": \"active\"\n    },\n    {\n      \"id\": 3381,\n      \"name\": \"Siddhi Kaul\",\n      \"email\": \"siddhi_kaul@lebsack-borer.name\",\n      \"gender\": \"male\",\n      \"status\": \"active\"\n    },\n    {\n      \"id\": 3371,\n      \"name\": \"Gorakhnath Ahuja\",\n      \"email\": \"ahuja_gorakhnath@schuster.org\",\n      \"gender\": \"male\",\n      \"status\": \"active\"\n    },\n    {\n      \"id\": 3370,\n      \"name\": \"Atmaja Gandhi\",\n      \"email\": \"atmaja_gandhi@fay.net\",\n      \"gender\": \"male\",\n      \"status\": \"active\"\n    },\n    {\n      \"id\": 3368,\n      \"name\": \"Aanjaneya Johar LLD\",\n      \"email\": \"lld_aanjaneya_johar@stanton.com\",\n      \"gender\": \"male\",\n      \"status\": \"active\"\n    },\n    {\n      \"id\": 3366,\n      \"name\": \"Bheeshma Abbott MD\",\n      \"email\": \"md_bheeshma_abbott@kuvalis-baumbach.biz\",\n      \"gender\": \"male\",\n      \"status\": \"active\"\n    }\n  ]\n}\n \n"}],"executorName":"main","line":3,"name":"get all active users","description":"","durationMillis":1370.5898,"startTime":1667472035354,"failed":false,"refId":"[1:3]","endTime":1667472036916,"exampleIndex":-1}],"callDepth":0,"name":"GET API with Query Parameters","description":"","resultDate":"2022-11-03 05:40:36 PM","durationMillis":1370.5898,"passedCount":1}