{"failedCount":0,"prefixedPath":"src\/test\/java\/features\/GetApiWithQuery.feature","packageQualifiedName":"src.test.java.features.GetApiWithQuery","loopIndex":-1,"relativePath":"src\/test\/java\/features\/GetApiWithQuery.feature","scenarioResults":[{"sectionIndex":0,"stepResults":[{"result":{"nanos":42319200,"millis":42.3192,"status":"passed"},"step":{"line":4,"prefix":"*","index":0,"text":"def query = {status: 'active'}"},"stepLog":"17:32:37.109 karate.env system property was: null \n"},{"result":{"nanos":7472500,"millis":7.4725,"status":"passed"},"step":{"line":5,"prefix":"Given","index":1,"text":"url baseUrl + '\/public\/v1\/users'"}},{"result":{"nanos":9114200,"millis":9.1142,"status":"passed"},"step":{"line":6,"prefix":"And","index":2,"text":"params query"}},{"result":{"nanos":1229782600,"millis":1229.7826,"status":"passed"},"step":{"line":7,"prefix":"When","index":3,"text":"method GET"},"stepLog":"17:32:37.890 request:\n1 > GET https:\/\/gorest.co.in\/public\/v1\/users?status=active\n1 > Host: gorest.co.in\n1 > Connection: Keep-Alive\n1 > User-Agent: Apache-HttpClient\/4.5.12 (Java\/1.8.0_351)\n1 > Accept-Encoding: gzip,deflate\n\n\n17:32:38.433 response time in milliseconds: 539\n1 < 200\n1 < Date: Thu, 03 Nov 2022 10:32:39 GMT\n1 < Content-Type: application\/json; charset=utf-8\n1 < Transfer-Encoding: chunked\n1 < Connection: keep-alive\n1 < Cache-Control: max-age=0, private, must-revalidate\n1 < etag: W\/\"c389f7495e15bc45936aff1999e232a1\"\n1 < referrer-policy: strict-origin-when-cross-origin\n1 < vary: Origin\n1 < x-content-type-options: nosniff\n1 < x-download-options: noopen\n1 < x-frame-options: SAMEORIGIN\n1 < x-permitted-cross-domain-policies: none\n1 < x-request-id: 226a379e-75fe-4845-8b4c-eb6310b1b652\n1 < x-runtime: 0.024462\n1 < x-xss-protection: 0\n1 < CF-Cache-Status: DYNAMIC\n1 < Report-To: {\"endpoints\":[{\"url\":\"https:\\\/\\\/a.nel.cloudflare.com\\\/report\\\/v3?s=GfTo2OTYA5bByxwS90Afd2DpEBq1fdLoxFP2vj%2BJWnZ9ZJVFTimDMqkm%2BIsBaqPxhTsoC%2FtJqQzxJFE1BUZGJ11m1IUSGXVyJiiPqyM%2FJWbVx3nHJDLjNpn0DDvJUF0%3D\"}],\"group\":\"cf-nel\",\"max_age\":604800}\n1 < NEL: {\"success_fraction\":0,\"report_to\":\"cf-nel\",\"max_age\":604800}\n1 < Server: cloudflare\n1 < CF-RAY: 7644727c6a6d91b4-SIN\n1 < alt-svc: h3=\":443\"; ma=86400, h3-29=\":443\"; ma=86400\n{\"meta\":{\"pagination\":{\"total\":1710,\"pages\":171,\"page\":1,\"limit\":10,\"links\":{\"previous\":null,\"current\":\"https:\/\/gorest.co.in\/public\/v1\/users?page=1\",\"next\":\"https:\/\/gorest.co.in\/public\/v1\/users?page=2\"}}},\"data\":[{\"id\":3393,\"name\":\"Sen. Gajaadhar Johar\",\"email\":\"johar_gajaadhar_sen@mcdermott.net\",\"gender\":\"female\",\"status\":\"active\"},{\"id\":3392,\"name\":\"Dhara Varma\",\"email\":\"varma_dhara@kuvalis.biz\",\"gender\":\"male\",\"status\":\"active\"},{\"id\":3391,\"name\":\"Vrund Butt\",\"email\":\"vrund_butt@fay.name\",\"gender\":\"female\",\"status\":\"active\"},{\"id\":3390,\"name\":\"Sukanya Khanna\",\"email\":\"khanna_sukanya@reynolds.net\",\"gender\":\"male\",\"status\":\"active\"},{\"id\":3389,\"name\":\"Mr. Tanya Desai\",\"email\":\"mr_desai_tanya@grant.co\",\"gender\":\"male\",\"status\":\"active\"},{\"id\":3386,\"name\":\"Chinmayanand Bharadwaj IV\",\"email\":\"chinmayanand_bharadwaj_iv@torphy.net\",\"gender\":\"male\",\"status\":\"active\"},{\"id\":3385,\"name\":\"Aaryan Chattopadhyay\",\"email\":\"aaryan_chattopadhyay@heidenreich.co\",\"gender\":\"female\",\"status\":\"active\"},{\"id\":3382,\"name\":\"Aanandaswarup Prajapat\",\"email\":\"prajapat_aanandaswarup@hayes-prohaska.com\",\"gender\":\"male\",\"status\":\"active\"},{\"id\":3381,\"name\":\"Siddhi Kaul\",\"email\":\"siddhi_kaul@lebsack-borer.name\",\"gender\":\"male\",\"status\":\"active\"},{\"id\":3380,\"name\":\"Aagneya Somayaji LLD\",\"email\":\"somayaji_lld_aagneya@corkery-stracke.co\",\"gender\":\"female\",\"status\":\"active\"}]}\n\n"},{"result":{"nanos":16400,"millis":0.0164,"status":"passed"},"step":{"line":8,"prefix":"Then","index":4,"text":"status 200"}},{"result":{"nanos":3223000,"millis":3.223,"status":"passed"},"step":{"line":9,"prefix":"*","index":5,"text":"print response"},"stepLog":"17:32:38.442 [print] {\n  \"meta\": {\n    \"pagination\": {\n      \"total\": 1710,\n      \"pages\": 171,\n      \"page\": 1,\n      \"limit\": 10,\n      \"links\": {\n        \"previous\": null,\n        \"current\": \"https:\/\/gorest.co.in\/public\/v1\/users?page=1\",\n        \"next\": \"https:\/\/gorest.co.in\/public\/v1\/users?page=2\"\n      }\n    }\n  },\n  \"data\": [\n    {\n      \"id\": 3393,\n      \"name\": \"Sen. Gajaadhar Johar\",\n      \"email\": \"johar_gajaadhar_sen@mcdermott.net\",\n      \"gender\": \"female\",\n      \"status\": \"active\"\n    },\n    {\n      \"id\": 3392,\n      \"name\": \"Dhara Varma\",\n      \"email\": \"varma_dhara@kuvalis.biz\",\n      \"gender\": \"male\",\n      \"status\": \"active\"\n    },\n    {\n      \"id\": 3391,\n      \"name\": \"Vrund Butt\",\n      \"email\": \"vrund_butt@fay.name\",\n      \"gender\": \"female\",\n      \"status\": \"active\"\n    },\n    {\n      \"id\": 3390,\n      \"name\": \"Sukanya Khanna\",\n      \"email\": \"khanna_sukanya@reynolds.net\",\n      \"gender\": \"male\",\n      \"status\": \"active\"\n    },\n    {\n      \"id\": 3389,\n      \"name\": \"Mr. Tanya Desai\",\n      \"email\": \"mr_desai_tanya@grant.co\",\n      \"gender\": \"male\",\n      \"status\": \"active\"\n    },\n    {\n      \"id\": 3386,\n      \"name\": \"Chinmayanand Bharadwaj IV\",\n      \"email\": \"chinmayanand_bharadwaj_iv@torphy.net\",\n      \"gender\": \"male\",\n      \"status\": \"active\"\n    },\n    {\n      \"id\": 3385,\n      \"name\": \"Aaryan Chattopadhyay\",\n      \"email\": \"aaryan_chattopadhyay@heidenreich.co\",\n      \"gender\": \"female\",\n      \"status\": \"active\"\n    },\n    {\n      \"id\": 3382,\n      \"name\": \"Aanandaswarup Prajapat\",\n      \"email\": \"prajapat_aanandaswarup@hayes-prohaska.com\",\n      \"gender\": \"male\",\n      \"status\": \"active\"\n    },\n    {\n      \"id\": 3381,\n      \"name\": \"Siddhi Kaul\",\n      \"email\": \"siddhi_kaul@lebsack-borer.name\",\n      \"gender\": \"male\",\n      \"status\": \"active\"\n    },\n    {\n      \"id\": 3380,\n      \"name\": \"Aagneya Somayaji LLD\",\n      \"email\": \"somayaji_lld_aagneya@corkery-stracke.co\",\n      \"gender\": \"female\",\n      \"status\": \"active\"\n    }\n  ]\n}\n \n"}],"executorName":"main","line":3,"name":"get all active users","description":"","durationMillis":1291.9279,"startTime":1667471556965,"failed":false,"refId":"[1:3]","endTime":1667471558442,"exampleIndex":-1}],"callDepth":0,"name":"GET API with Query Parameters","description":"","resultDate":"2022-11-03 05:32:38 PM","durationMillis":1291.9279,"passedCount":1}