{"failedCount":0,"prefixedPath":"src\/test\/java\/features\/GetApiWithQuery.feature","packageQualifiedName":"src.test.java.features.GetApiWithQuery","loopIndex":-1,"relativePath":"src\/test\/java\/features\/GetApiWithQuery.feature","scenarioResults":[{"sectionIndex":0,"stepResults":[{"result":{"nanos":41351000,"millis":41.351,"status":"passed"},"step":{"line":4,"prefix":"*","index":0,"text":"def query = {status: 'active', gender: 'female', id: 23}"},"stepLog":"17:53:00.118 karate.env system property was: null \n"},{"result":{"nanos":6220800,"millis":6.2208,"status":"passed"},"step":{"line":5,"prefix":"Given","index":1,"text":"url baseUrl + '\/public\/v1\/users'"}},{"result":{"nanos":9608100,"millis":9.6081,"status":"passed"},"step":{"line":6,"prefix":"And","index":2,"text":"params query"}},{"result":{"nanos":1254609300,"millis":1254.6093,"status":"passed"},"step":{"line":7,"prefix":"When","index":3,"text":"method GET"},"stepLog":"17:53:00.939 request:\n1 > GET https:\/\/gorest.co.in\/public\/v1\/users?gender=female&id=23&status=active\n1 > Host: gorest.co.in\n1 > Connection: Keep-Alive\n1 > User-Agent: Apache-HttpClient\/4.5.12 (Java\/1.8.0_351)\n1 > Accept-Encoding: gzip,deflate\n\n\n17:53:01.462 response time in milliseconds: 520\n1 < 200\n1 < Date: Thu, 03 Nov 2022 10:53:02 GMT\n1 < Content-Type: application\/json; charset=utf-8\n1 < Transfer-Encoding: chunked\n1 < Connection: keep-alive\n1 < Cache-Control: max-age=0, private, must-revalidate\n1 < etag: W\/\"7d0fad3944b5884d753950e7824069d3\"\n1 < referrer-policy: strict-origin-when-cross-origin\n1 < vary: Origin\n1 < x-content-type-options: nosniff\n1 < x-download-options: noopen\n1 < x-frame-options: SAMEORIGIN\n1 < x-permitted-cross-domain-policies: none\n1 < x-request-id: 78b8f847-e216-43c2-8f50-1b0aac4e424a\n1 < x-runtime: 0.017562\n1 < x-xss-protection: 0\n1 < CF-Cache-Status: DYNAMIC\n1 < Report-To: {\"endpoints\":[{\"url\":\"https:\\\/\\\/a.nel.cloudflare.com\\\/report\\\/v3?s=SJrF1JHiUUykGI%2BRAJl0yeOT02JSBqkEgahwEB4XcNfctUb5yXjAkVcwAb%2BV9lYtAmSS4yvnmqxYdVd863SF4uSiiA8fLU42rML3x8HYl2%2BB2pEwlqOGnaXoMWjJ%2Bb8%3D\"}],\"group\":\"cf-nel\",\"max_age\":604800}\n1 < NEL: {\"success_fraction\":0,\"report_to\":\"cf-nel\",\"max_age\":604800}\n1 < Server: cloudflare\n1 < CF-RAY: 764490588e9c91b4-SIN\n1 < alt-svc: h3=\":443\"; ma=86400, h3-29=\":443\"; ma=86400\n{\"meta\":{\"pagination\":{\"total\":0,\"pages\":0,\"page\":1,\"limit\":10,\"links\":{\"previous\":null,\"current\":null,\"next\":null}}},\"data\":[]}\n\n"},{"result":{"nanos":16600,"millis":0.0166,"status":"passed"},"step":{"line":8,"prefix":"Then","index":4,"text":"status 200"}},{"result":{"nanos":2249300,"millis":2.2493,"status":"passed"},"step":{"line":9,"prefix":"*","index":5,"text":"print response"},"stepLog":"17:53:01.470 [print] {\n  \"meta\": {\n    \"pagination\": {\n      \"total\": 0,\n      \"pages\": 0,\n      \"page\": 1,\n      \"limit\": 10,\n      \"links\": {\n        \"previous\": null,\n        \"current\": null,\n        \"next\": null\n      }\n    }\n  },\n  \"data\": [\n  ]\n}\n \n"}],"executorName":"main","line":3,"name":"get all active users","description":"","durationMillis":1314.0551,"startTime":1667472779971,"failed":false,"refId":"[1:3]","endTime":1667472781470,"exampleIndex":-1},{"sectionIndex":1,"stepResults":[{"result":{"nanos":268200,"millis":0.2682,"status":"passed"},"step":{"line":12,"prefix":"*","index":0,"text":"def query = {status: 'active'}"},"stepLog":"17:53:01.478 karate.env system property was: null \n"},{"result":{"nanos":541900,"millis":0.5419,"status":"passed"},"step":{"line":13,"prefix":"Given","index":1,"text":"url baseUrl + '\/public\/v1\/users'"}},{"result":{"nanos":142400,"millis":0.1424,"status":"passed"},"step":{"line":14,"prefix":"And","index":2,"text":"params query"}},{"result":{"nanos":225894200,"millis":225.8942,"status":"passed"},"step":{"line":15,"prefix":"When","index":3,"text":"method GET"},"stepLog":"17:53:01.481 request:\n1 > GET https:\/\/gorest.co.in\/public\/v1\/users?status=active\n1 > Host: gorest.co.in\n1 > Connection: Keep-Alive\n1 > User-Agent: Apache-HttpClient\/4.5.12 (Java\/1.8.0_351)\n1 > Accept-Encoding: gzip,deflate\n\n\n17:53:01.705 response time in milliseconds: 223\n1 < 200\n1 < Date: Thu, 03 Nov 2022 10:53:02 GMT\n1 < Content-Type: application\/json; charset=utf-8\n1 < Transfer-Encoding: chunked\n1 < Connection: keep-alive\n1 < Cache-Control: max-age=0, private, must-revalidate\n1 < etag: W\/\"666a2fc48d89f5ab83176c45135b3939\"\n1 < referrer-policy: strict-origin-when-cross-origin\n1 < vary: Origin\n1 < x-content-type-options: nosniff\n1 < x-download-options: noopen\n1 < x-frame-options: SAMEORIGIN\n1 < x-permitted-cross-domain-policies: none\n1 < x-request-id: 8ebdd94c-d4ad-4106-a27f-826e2eb5be21\n1 < x-runtime: 0.022347\n1 < x-xss-protection: 0\n1 < CF-Cache-Status: DYNAMIC\n1 < Report-To: {\"endpoints\":[{\"url\":\"https:\\\/\\\/a.nel.cloudflare.com\\\/report\\\/v3?s=adRq5buzj3YOHELeGeRYTTzG%2Bg1S18B8w17tToTnsJM%2BhsPZJUSbAjvWeq0nG9%2FP7Fckb%2BYkbz0yA2iyCkXmD%2Bq1Bb9iG0bpPX87H9s2H63zDlqOXh%2Fp0BApKxIG2F0%3D\"}],\"group\":\"cf-nel\",\"max_age\":604800}\n1 < NEL: {\"success_fraction\":0,\"report_to\":\"cf-nel\",\"max_age\":604800}\n1 < Server: cloudflare\n1 < CF-RAY: 7644905a18cc91b4-SIN\n1 < alt-svc: h3=\":443\"; ma=86400, h3-29=\":443\"; ma=86400\n{\"meta\":{\"pagination\":{\"total\":1708,\"pages\":171,\"page\":1,\"limit\":10,\"links\":{\"previous\":null,\"current\":\"https:\/\/gorest.co.in\/public\/v1\/users?page=1\",\"next\":\"https:\/\/gorest.co.in\/public\/v1\/users?page=2\"}}},\"data\":[{\"id\":3393,\"name\":\"Sen. Gajaadhar Johar\",\"email\":\"johar_gajaadhar_sen@mcdermott.net\",\"gender\":\"female\",\"status\":\"active\"},{\"id\":3392,\"name\":\"Dhara Varma\",\"email\":\"varma_dhara@kuvalis.biz\",\"gender\":\"male\",\"status\":\"active\"},{\"id\":3391,\"name\":\"Vrund Butt\",\"email\":\"vrund_butt@fay.name\",\"gender\":\"female\",\"status\":\"active\"},{\"id\":3390,\"name\":\"Sukanya Khanna\",\"email\":\"khanna_sukanya@reynolds.net\",\"gender\":\"male\",\"status\":\"active\"},{\"id\":3389,\"name\":\"Mr. Tanya Desai\",\"email\":\"mr_desai_tanya@grant.co\",\"gender\":\"male\",\"status\":\"active\"},{\"id\":3386,\"name\":\"Chinmayanand Bharadwaj IV\",\"email\":\"chinmayanand_bharadwaj_iv@torphy.net\",\"gender\":\"male\",\"status\":\"active\"},{\"id\":3385,\"name\":\"Aaryan Chattopadhyay\",\"email\":\"aaryan_chattopadhyay@heidenreich.co\",\"gender\":\"female\",\"status\":\"active\"},{\"id\":3382,\"name\":\"Aanandaswarup Prajapat\",\"email\":\"prajapat_aanandaswarup@hayes-prohaska.com\",\"gender\":\"male\",\"status\":\"active\"},{\"id\":3381,\"name\":\"Siddhi Kaul\",\"email\":\"siddhi_kaul@lebsack-borer.name\",\"gender\":\"male\",\"status\":\"active\"},{\"id\":3380,\"name\":\"Aagneya Somayaji LLD\",\"email\":\"somayaji_lld_aagneya@corkery-stracke.co\",\"gender\":\"female\",\"status\":\"active\"}]}\n\n"},{"result":{"nanos":13200,"millis":0.0132,"status":"passed"},"step":{"line":16,"prefix":"Then","index":4,"text":"status 200"}},{"result":{"nanos":516900,"millis":0.5169,"status":"passed"},"step":{"line":17,"prefix":"*","index":5,"text":"def jsonResponse = response"}},{"result":{"nanos":2003900,"millis":2.0039,"status":"passed"},"step":{"line":18,"prefix":"*","index":6,"text":"print jsonResponse"},"stepLog":"17:53:01.710 [print] {\n  \"meta\": {\n    \"pagination\": {\n      \"total\": 1708,\n      \"pages\": 171,\n      \"page\": 1,\n      \"limit\": 10,\n      \"links\": {\n        \"previous\": null,\n        \"current\": \"https:\/\/gorest.co.in\/public\/v1\/users?page=1\",\n        \"next\": \"https:\/\/gorest.co.in\/public\/v1\/users?page=2\"\n      }\n    }\n  },\n  \"data\": [\n    {\n      \"id\": 3393,\n      \"name\": \"Sen. Gajaadhar Johar\",\n      \"email\": \"johar_gajaadhar_sen@mcdermott.net\",\n      \"gender\": \"female\",\n      \"status\": \"active\"\n    },\n    {\n      \"id\": 3392,\n      \"name\": \"Dhara Varma\",\n      \"email\": \"varma_dhara@kuvalis.biz\",\n      \"gender\": \"male\",\n      \"status\": \"active\"\n    },\n    {\n      \"id\": 3391,\n      \"name\": \"Vrund Butt\",\n      \"email\": \"vrund_butt@fay.name\",\n      \"gender\": \"female\",\n      \"status\": \"active\"\n    },\n    {\n      \"id\": 3390,\n      \"name\": \"Sukanya Khanna\",\n      \"email\": \"khanna_sukanya@reynolds.net\",\n      \"gender\": \"male\",\n      \"status\": \"active\"\n    },\n    {\n      \"id\": 3389,\n      \"name\": \"Mr. Tanya Desai\",\n      \"email\": \"mr_desai_tanya@grant.co\",\n      \"gender\": \"male\",\n      \"status\": \"active\"\n    },\n    {\n      \"id\": 3386,\n      \"name\": \"Chinmayanand Bharadwaj IV\",\n      \"email\": \"chinmayanand_bharadwaj_iv@torphy.net\",\n      \"gender\": \"male\",\n      \"status\": \"active\"\n    },\n    {\n      \"id\": 3385,\n      \"name\": \"Aaryan Chattopadhyay\",\n      \"email\": \"aaryan_chattopadhyay@heidenreich.co\",\n      \"gender\": \"female\",\n      \"status\": \"active\"\n    },\n    {\n      \"id\": 3382,\n      \"name\": \"Aanandaswarup Prajapat\",\n      \"email\": \"prajapat_aanandaswarup@hayes-prohaska.com\",\n      \"gender\": \"male\",\n      \"status\": \"active\"\n    },\n    {\n      \"id\": 3381,\n      \"name\": \"Siddhi Kaul\",\n      \"email\": \"siddhi_kaul@lebsack-borer.name\",\n      \"gender\": \"male\",\n      \"status\": \"active\"\n    },\n    {\n      \"id\": 3380,\n      \"name\": \"Aagneya Somayaji LLD\",\n      \"email\": \"somayaji_lld_aagneya@corkery-stracke.co\",\n      \"gender\": \"female\",\n      \"status\": \"active\"\n    }\n  ]\n}\n \n"},{"result":{"nanos":1839300,"millis":1.8393,"status":"passed"},"step":{"line":19,"prefix":"*","index":7,"text":"def userCount = jsonResponse.data.length"}},{"result":{"nanos":3233800,"millis":3.2338,"status":"passed"},"step":{"line":20,"prefix":"*","index":8,"text":"def userCount1 = jsonResponse.meta.length"}},{"result":{"nanos":897700,"millis":0.8977,"status":"passed"},"step":{"line":21,"prefix":"*","index":9,"text":"print userCount"},"stepLog":"17:53:01.716 [print] 10 \n"},{"result":{"nanos":741300,"millis":0.7413,"status":"passed"},"step":{"line":22,"prefix":"*","index":10,"text":"print userCount1"},"stepLog":"17:53:01.717 [print] null \n"}],"executorName":"main","line":11,"name":"get all active users and get the count","description":"","durationMillis":236.0928,"startTime":1667472781475,"failed":false,"refId":"[2:11]","endTime":1667472781717,"exampleIndex":-1}],"callDepth":0,"name":"GET API with Query Parameters","description":"","resultDate":"2022-11-03 05:53:01 PM","durationMillis":1550.1479,"passedCount":2}