{"failedCount":0,"prefixedPath":"src\/test\/java\/features\/GetApiWithQuery.feature","packageQualifiedName":"src.test.java.features.GetApiWithQuery","loopIndex":-1,"relativePath":"src\/test\/java\/features\/GetApiWithQuery.feature","scenarioResults":[{"sectionIndex":0,"stepResults":[{"result":{"nanos":43376600,"millis":43.3766,"status":"passed"},"step":{"line":4,"prefix":"*","index":0,"text":"def query = {status: 'active', gender: 'female', id: 23}"},"stepLog":"17:51:44.095 karate.env system property was: null \n"},{"result":{"nanos":6412500,"millis":6.4125,"status":"passed"},"step":{"line":5,"prefix":"Given","index":1,"text":"url baseUrl + '\/public\/v1\/users'"}},{"result":{"nanos":7702300,"millis":7.7023,"status":"passed"},"step":{"line":6,"prefix":"And","index":2,"text":"params query"}},{"result":{"nanos":1261234300,"millis":1261.2343,"status":"passed"},"step":{"line":7,"prefix":"When","index":3,"text":"method GET"},"stepLog":"17:51:44.881 request:\n1 > GET https:\/\/gorest.co.in\/public\/v1\/users?gender=female&id=23&status=active\n1 > Host: gorest.co.in\n1 > Connection: Keep-Alive\n1 > User-Agent: Apache-HttpClient\/4.5.12 (Java\/1.8.0_351)\n1 > Accept-Encoding: gzip,deflate\n\n\n17:51:45.447 response time in milliseconds: 564\n1 < 200\n1 < Date: Thu, 03 Nov 2022 10:51:46 GMT\n1 < Content-Type: application\/json; charset=utf-8\n1 < Transfer-Encoding: chunked\n1 < Connection: keep-alive\n1 < Cache-Control: max-age=0, private, must-revalidate\n1 < etag: W\/\"7d0fad3944b5884d753950e7824069d3\"\n1 < referrer-policy: strict-origin-when-cross-origin\n1 < vary: Origin\n1 < x-content-type-options: nosniff\n1 < x-download-options: noopen\n1 < x-frame-options: SAMEORIGIN\n1 < x-permitted-cross-domain-policies: none\n1 < x-request-id: 90eb952e-6ae4-413a-a3a1-ab6518b3a3e7\n1 < x-runtime: 0.018629\n1 < x-xss-protection: 0\n1 < CF-Cache-Status: DYNAMIC\n1 < Report-To: {\"endpoints\":[{\"url\":\"https:\\\/\\\/a.nel.cloudflare.com\\\/report\\\/v3?s=SdnRkQVelZ%2BWpGbj09KXYILj%2FyKSIo8RiI97S3ugV%2FZwwLOa4EVsAI04c1%2FK77vZy6CgHFpiKmfbhFcyb2mup9dLBZnU%2B6KCh6VefRCjl6qEfKmlOhsUOsfebED%2FzzU%3D\"}],\"group\":\"cf-nel\",\"max_age\":604800}\n1 < NEL: {\"success_fraction\":0,\"report_to\":\"cf-nel\",\"max_age\":604800}\n1 < Server: cloudflare\n1 < CF-RAY: 76448e7cadca91b4-SIN\n1 < alt-svc: h3=\":443\"; ma=86400, h3-29=\":443\"; ma=86400\n{\"meta\":{\"pagination\":{\"total\":0,\"pages\":0,\"page\":1,\"limit\":10,\"links\":{\"previous\":null,\"current\":null,\"next\":null}}},\"data\":[]}\n\n"},{"result":{"nanos":12400,"millis":0.0124,"status":"passed"},"step":{"line":8,"prefix":"Then","index":4,"text":"status 200"}},{"result":{"nanos":1865800,"millis":1.8658,"status":"passed"},"step":{"line":9,"prefix":"*","index":5,"text":"print response"},"stepLog":"17:51:45.453 [print] {\n  \"meta\": {\n    \"pagination\": {\n      \"total\": 0,\n      \"pages\": 0,\n      \"page\": 1,\n      \"limit\": 10,\n      \"links\": {\n        \"previous\": null,\n        \"current\": null,\n        \"next\": null\n      }\n    }\n  },\n  \"data\": [\n  ]\n}\n \n"}],"executorName":"main","line":3,"name":"get all active users","description":"","durationMillis":1320.6039,"startTime":1667472703946,"failed":false,"refId":"[1:3]","endTime":1667472705454,"exampleIndex":-1},{"sectionIndex":1,"stepResults":[{"result":{"nanos":278400,"millis":0.2784,"status":"passed"},"step":{"line":12,"prefix":"*","index":0,"text":"def query = {status: 'active'}"},"stepLog":"17:51:45.459 karate.env system property was: null \n"},{"result":{"nanos":645500,"millis":0.6455,"status":"passed"},"step":{"line":13,"prefix":"Given","index":1,"text":"url baseUrl + '\/public\/v1\/users'"}},{"result":{"nanos":159100,"millis":0.1591,"status":"passed"},"step":{"line":14,"prefix":"And","index":2,"text":"params query"}},{"result":{"nanos":328587800,"millis":328.5878,"status":"passed"},"step":{"line":15,"prefix":"When","index":3,"text":"method GET"},"stepLog":"17:51:45.464 request:\n1 > GET https:\/\/gorest.co.in\/public\/v1\/users?status=active\n1 > Host: gorest.co.in\n1 > Connection: Keep-Alive\n1 > User-Agent: Apache-HttpClient\/4.5.12 (Java\/1.8.0_351)\n1 > Accept-Encoding: gzip,deflate\n\n\n17:51:45.790 response time in milliseconds: 325\n1 < 200\n1 < Date: Thu, 03 Nov 2022 10:51:46 GMT\n1 < Content-Type: application\/json; charset=utf-8\n1 < Transfer-Encoding: chunked\n1 < Connection: keep-alive\n1 < Cache-Control: max-age=0, private, must-revalidate\n1 < etag: W\/\"48a5ce8f25108b6bc284a098a283f50b\"\n1 < referrer-policy: strict-origin-when-cross-origin\n1 < vary: Origin\n1 < x-content-type-options: nosniff\n1 < x-download-options: noopen\n1 < x-frame-options: SAMEORIGIN\n1 < x-permitted-cross-domain-policies: none\n1 < x-request-id: 8372da7e-b37a-464b-b387-439b3e7afb23\n1 < x-runtime: 0.019953\n1 < x-xss-protection: 0\n1 < CF-Cache-Status: DYNAMIC\n1 < Report-To: {\"endpoints\":[{\"url\":\"https:\\\/\\\/a.nel.cloudflare.com\\\/report\\\/v3?s=CUkSNXjXqD1KCo%2FITsdV%2BMb9PmUWMKbLu2z%2BtGGekcRDzuJVKKptLJLP3XzjocslAUA6CZaOrqjrnzj9Z%2BLJineasy2vieVF8HpcoJeewfUlk6k6FzqKvgl5JtkVeDQ%3D\"}],\"group\":\"cf-nel\",\"max_age\":604800}\n1 < NEL: {\"success_fraction\":0,\"report_to\":\"cf-nel\",\"max_age\":604800}\n1 < Server: cloudflare\n1 < CF-RAY: 76448e7f0b9b91b4-SIN\n1 < alt-svc: h3=\":443\"; ma=86400, h3-29=\":443\"; ma=86400\n{\"meta\":{\"pagination\":{\"total\":1709,\"pages\":171,\"page\":1,\"limit\":10,\"links\":{\"previous\":null,\"current\":\"https:\/\/gorest.co.in\/public\/v1\/users?page=1\",\"next\":\"https:\/\/gorest.co.in\/public\/v1\/users?page=2\"}}},\"data\":[{\"id\":3393,\"name\":\"Sen. Gajaadhar Johar\",\"email\":\"johar_gajaadhar_sen@mcdermott.net\",\"gender\":\"female\",\"status\":\"active\"},{\"id\":3392,\"name\":\"Dhara Varma\",\"email\":\"varma_dhara@kuvalis.biz\",\"gender\":\"male\",\"status\":\"active\"},{\"id\":3391,\"name\":\"Vrund Butt\",\"email\":\"vrund_butt@fay.name\",\"gender\":\"female\",\"status\":\"active\"},{\"id\":3390,\"name\":\"Sukanya Khanna\",\"email\":\"khanna_sukanya@reynolds.net\",\"gender\":\"male\",\"status\":\"active\"},{\"id\":3389,\"name\":\"Mr. Tanya Desai\",\"email\":\"mr_desai_tanya@grant.co\",\"gender\":\"male\",\"status\":\"active\"},{\"id\":3386,\"name\":\"Chinmayanand Bharadwaj IV\",\"email\":\"chinmayanand_bharadwaj_iv@torphy.net\",\"gender\":\"male\",\"status\":\"active\"},{\"id\":3385,\"name\":\"Aaryan Chattopadhyay\",\"email\":\"aaryan_chattopadhyay@heidenreich.co\",\"gender\":\"female\",\"status\":\"active\"},{\"id\":3382,\"name\":\"Aanandaswarup Prajapat\",\"email\":\"prajapat_aanandaswarup@hayes-prohaska.com\",\"gender\":\"male\",\"status\":\"active\"},{\"id\":3381,\"name\":\"Siddhi Kaul\",\"email\":\"siddhi_kaul@lebsack-borer.name\",\"gender\":\"male\",\"status\":\"active\"},{\"id\":3380,\"name\":\"Aagneya Somayaji LLD\",\"email\":\"somayaji_lld_aagneya@corkery-stracke.co\",\"gender\":\"female\",\"status\":\"active\"}]}\n\n"},{"result":{"nanos":16600,"millis":0.0166,"status":"passed"},"step":{"line":16,"prefix":"Then","index":4,"text":"status 200"}},{"result":{"nanos":883100,"millis":0.8831,"status":"passed"},"step":{"line":17,"prefix":"*","index":5,"text":"def jsonResponse = response"}},{"result":{"nanos":2135100,"millis":2.1351,"status":"passed"},"step":{"line":18,"prefix":"*","index":6,"text":"print jsonResponse"},"stepLog":"17:51:45.794 [print] {\n  \"meta\": {\n    \"pagination\": {\n      \"total\": 1709,\n      \"pages\": 171,\n      \"page\": 1,\n      \"limit\": 10,\n      \"links\": {\n        \"previous\": null,\n        \"current\": \"https:\/\/gorest.co.in\/public\/v1\/users?page=1\",\n        \"next\": \"https:\/\/gorest.co.in\/public\/v1\/users?page=2\"\n      }\n    }\n  },\n  \"data\": [\n    {\n      \"id\": 3393,\n      \"name\": \"Sen. Gajaadhar Johar\",\n      \"email\": \"johar_gajaadhar_sen@mcdermott.net\",\n      \"gender\": \"female\",\n      \"status\": \"active\"\n    },\n    {\n      \"id\": 3392,\n      \"name\": \"Dhara Varma\",\n      \"email\": \"varma_dhara@kuvalis.biz\",\n      \"gender\": \"male\",\n      \"status\": \"active\"\n    },\n    {\n      \"id\": 3391,\n      \"name\": \"Vrund Butt\",\n      \"email\": \"vrund_butt@fay.name\",\n      \"gender\": \"female\",\n      \"status\": \"active\"\n    },\n    {\n      \"id\": 3390,\n      \"name\": \"Sukanya Khanna\",\n      \"email\": \"khanna_sukanya@reynolds.net\",\n      \"gender\": \"male\",\n      \"status\": \"active\"\n    },\n    {\n      \"id\": 3389,\n      \"name\": \"Mr. Tanya Desai\",\n      \"email\": \"mr_desai_tanya@grant.co\",\n      \"gender\": \"male\",\n      \"status\": \"active\"\n    },\n    {\n      \"id\": 3386,\n      \"name\": \"Chinmayanand Bharadwaj IV\",\n      \"email\": \"chinmayanand_bharadwaj_iv@torphy.net\",\n      \"gender\": \"male\",\n      \"status\": \"active\"\n    },\n    {\n      \"id\": 3385,\n      \"name\": \"Aaryan Chattopadhyay\",\n      \"email\": \"aaryan_chattopadhyay@heidenreich.co\",\n      \"gender\": \"female\",\n      \"status\": \"active\"\n    },\n    {\n      \"id\": 3382,\n      \"name\": \"Aanandaswarup Prajapat\",\n      \"email\": \"prajapat_aanandaswarup@hayes-prohaska.com\",\n      \"gender\": \"male\",\n      \"status\": \"active\"\n    },\n    {\n      \"id\": 3381,\n      \"name\": \"Siddhi Kaul\",\n      \"email\": \"siddhi_kaul@lebsack-borer.name\",\n      \"gender\": \"male\",\n      \"status\": \"active\"\n    },\n    {\n      \"id\": 3380,\n      \"name\": \"Aagneya Somayaji LLD\",\n      \"email\": \"somayaji_lld_aagneya@corkery-stracke.co\",\n      \"gender\": \"female\",\n      \"status\": \"active\"\n    }\n  ]\n}\n \n"},{"result":{"nanos":2086100,"millis":2.0861,"status":"passed"},"step":{"line":19,"prefix":"*","index":7,"text":"def userCount = jsonResponse.data.length"}},{"result":{"nanos":1190700,"millis":1.1907,"status":"passed"},"step":{"line":20,"prefix":"*","index":8,"text":"print userCount"},"stepLog":"17:51:45.798 [print] 10 \n"}],"executorName":"main","line":11,"name":"get all active users and get the count","description":"","durationMillis":335.9824,"startTime":1667472705457,"failed":false,"refId":"[2:11]","endTime":1667472705798,"exampleIndex":-1}],"callDepth":0,"name":"GET API with Query Parameters","description":"","resultDate":"2022-11-03 05:51:45 PM","durationMillis":1656.5863,"passedCount":2}